<?xml version="1.0" encoding="utf-8"?>
<!-- Generator: Adobe Illustrator 15.1.0, SVG Export Plug-In . SVG Version: 6.00 Build 0)  -->
<!DOCTYPE svg PUBLIC "-//W3C//DTD SVG 1.1//EN" "http://www.w3.org/Graphics/SVG/1.1/DTD/svg11.dtd">
<svg version="1.1"
	 id="svg2" xmlns:dc="http://purl.org/dc/elements/1.1/" xmlns:cc="http://creativecommons.org/ns#" xmlns:rdf="http://www.w3.org/1999/02/22-rdf-syntax-ns#" xmlns:sodipodi="http://sodipodi.sourceforge.net/DTD/sodipodi-0.dtd" xmlns:inkscape="http://www.inkscape.org/namespaces/inkscape" xmlns:svg="http://www.w3.org/2000/svg" sodipodi:docname="landscape.svg" inkscape:version="0.48.0 r9654"
	 xmlns="http://www.w3.org/2000/svg" xmlns:xlink="http://www.w3.org/1999/xlink" x="0px" y="0px" width="600px" height="400px"
	 viewBox="0 0 600 400" enable-background="new 0 0 600 400" xml:space="preserve">
<sodipodi:namedview  inkscape:window-x="-8" inkscape:window-maximized="1" inkscape:window-height="1004" inkscape:window-width="1280" inkscape:zoom="3.5894273" inkscape:current-layer="svg2" inkscape:pageshadow="2" showgrid="false" pagecolor="#ffffff" objecttolerance="10" gridtolerance="10" borderopacity="1" bordercolor="#666666" inkscape:cx="279.72509" inkscape:pageopacity="0" id="namedview9" guidetolerance="10" inkscape:cy="78.350515" inkscape:window-y="-8">
	</sodipodi:namedview>
<g id="g4" sodipodi:docname="landscape.svg" inkscape:version="0.48.0 r9654">
</g>
</svg>
